{
  "LazyVim": { "branch": "main", "commit": "f9dadc11b39fb0b027473caaab2200b35c9f0c8b" },
  "LuaSnip": { "branch": "master", "commit": "c4d6298347f7707e9757351b2ee03d0c00da5c20" },
  "SchemaStore.nvim": { "branch": "main", "commit": "c7c6353db3208608786503cbade1e9f8d3531f15" },
  "alpha-nvim": { "branch": "main", "commit": "63a860e7ed3ae41ee92481ea65a48fb35431ae21" },
  "bufferline.nvim": { "branch": "main", "commit": "9961d87bb3ec008213c46ba14b3f384a5f520eb5" },
  "catppuccin": { "branch": "main", "commit": "2e3e5ebcdc24ef0d5b14a0a999dbbe7936512c46" },
  "cmp-buffer": { "branch": "main", "commit": "3022dbc9166796b644a841a02de8dd1cc1d311fa" },
  "cmp-nvim-lsp": { "branch": "main", "commit": "44b16d11215dce86f253ce0c30949813c0a90765" },
  "cmp-path": { "branch": "main", "commit": "91ff86cd9c29299a64f968ebb45846c485725f23" },
  "cmp_luasnip": { "branch": "master", "commit": "18095520391186d634a0045dacaa346291096566" },
  "crates.nvim": { "branch": "main", "commit": "d5caf28aba49e81ac4099426231f3cf3c151013a" },
  "dressing.nvim": { "branch": "master", "commit": "c7b035de7f91bb6b62b4308f105c56d1a968b8c5" },
  "flash.nvim": { "branch": "main", "commit": "8a8e74922a383c253b7f92e042b749150140c8d1" },
  "friendly-snippets": { "branch": "main", "commit": "00e191fea2cfbbdd378243f35b5953296537a116" },
  "gitsigns.nvim": { "branch": "main", "commit": "44adf808ace6cb65a3353bd61fa585a2d8fe0db3" },
  "indent-blankline.nvim": { "branch": "master", "commit": "9637670896b68805430e2f72cf5d16be5b97a22a" },
  "lazy.nvim": { "branch": "main", "commit": "3ad55ae678876516156cca2f361c51f7952a924b" },
  "lualine.nvim": { "branch": "master", "commit": "45e27ca739c7be6c49e5496d14fcf45a303c3a63" },
  "mason-lspconfig.nvim": { "branch": "main", "commit": "dfdd771b792fbb4bad8e057d72558255695aa1a7" },
  "mason.nvim": { "branch": "main", "commit": "0942198fb9a998b6ccee36fb8dd7495eb8ba659c" },
  "mini.ai": { "branch": "main", "commit": "7ae226f331885e6f30e9a8229e113debc59308ae" },
  "mini.animate": { "branch": "main", "commit": "230140aa0b06af87c9d345573aab1aaf50d8b539" },
  "mini.bufremove": { "branch": "main", "commit": "7821606e35c1ac931b56d8e3155f45ffe76ee7e5" },
  "mini.comment": { "branch": "main", "commit": "877acea5b2a32ff55f808fc0ebe9aa898648318c" },
  "mini.indentscope": { "branch": "main", "commit": "f60e9b51a6214c73a170ffc5445ce91560981031" },
  "mini.pairs": { "branch": "main", "commit": "dfa9f6e2576bb8853be277d96b735af59d9be7c2" },
  "mini.surround": { "branch": "main", "commit": "9d1956b576d7051da3a483b251dfc778121c60db" },
  "neo-tree.nvim": { "branch": "v3.x", "commit": "9b5b4c874b13e372500f07c37187ba06c0c1ac0a" },
  "neoconf.nvim": { "branch": "main", "commit": "1075bd7f23d244f14d691c261b14c38209abf02d" },
  "neodev.nvim": { "branch": "main", "commit": "183f5a7357397260b631d6cccceccc3621b50f78" },
  "neotest-rust": { "branch": "main", "commit": "95161da0fbe0570395a938927b654931a82caecb" },
  "noice.nvim": { "branch": "main", "commit": "74c2902146b080035beb19944baf6f014a954720" },
  "nui.nvim": { "branch": "main", "commit": "aa1b4c1e05983ff7debd2b4b2788651db099de2f" },
  "null-ls.nvim": { "branch": "main", "commit": "0010ea927ab7c09ef0ce9bf28c2b573fc302f5a7" },
  "nvim-cmp": { "branch": "main", "commit": "5dce1b778b85c717f6614e3f4da45e9f19f54435" },
  "nvim-lspconfig": { "branch": "master", "commit": "a27356f1ef9c11e1f459cc96a3fcac5c265e72d6" },
  "nvim-navic": { "branch": "master", "commit": "9c89730da6a05acfeb6a197e212dfadf5aa60ca0" },
  "nvim-notify": { "branch": "master", "commit": "ea9c8ce7a37f2238f934e087c255758659948e0f" },
  "nvim-spectre": { "branch": "master", "commit": "411cee67fe3f8242023eb8d9edafefbbfb2d06f1" },
  "nvim-treesitter": { "branch": "master", "commit": "8e9cc89955ee5dcd9743ba47a9e6e44a78f648f8" },
  "nvim-treesitter-textobjects": { "branch": "master", "commit": "bd103502252027434ec42f628d2dbf54821d4ce6" },
  "nvim-ts-context-commentstring": { "branch": "main", "commit": "9bff161dfece6ecf3459e6e46ca42e49f9ed939f" },
  "nvim-web-devicons": { "branch": "master", "commit": "cfc8824cc1db316a276b36517f093baccb8e799a" },
  "persistence.nvim": { "branch": "main", "commit": "4b8051c01f696d8849a5cb8afa9767be8db16e40" },
  "plenary.nvim": { "branch": "master", "commit": "0dbe561ae023f02c2fb772b879e905055b939ce3" },
  "rust-tools.nvim": { "branch": "master", "commit": "0cc8adab23117783a0292a0c8a2fbed1005dc645" },
  "telescope.nvim": { "branch": "master", "commit": "2c1ed33a6f6f2db3b69f5421f6b405eda1b07748" },
  "todo-comments.nvim": { "branch": "main", "commit": "3094ead8edfa9040de2421deddec55d3762f64d1" },
  "tokyonight.nvim": { "branch": "main", "commit": "9a01eada39558dc3243278e6805d90e8dff45dc0" },
  "trouble.nvim": { "branch": "main", "commit": "3f85d8ed30e97ceeddbbcf80224245d347053711" },
  "typescript.nvim": { "branch": "main", "commit": "4de85ef699d7e6010528dcfbddc2ed4c2c421467" },
  "vim-illuminate": { "branch": "master", "commit": "76f28e858f1caae87bfa45fb4fd09e4b053fc45b" },
  "vim-startuptime": { "branch": "master", "commit": "454b3de856b7bd298700de33d79774ca9b9e3875" },
  "which-key.nvim": { "branch": "main", "commit": "7ccf476ebe0445a741b64e36c78a682c1c6118b7" }
}